[ 33.   33.   33.   33.   33.   33.   52.6  50.   50.   50.  126.8 122.6
 122.6 122.6 160.  160.  160.8 182.  182.  119.6 119.6 119.6  56.4  43.2
  43.2  40.8  47.   47.   47.   47.   47.2  47.2  47.2  44.8  48.2  33.6
  48.2  48.2  61.6  61.6  61.6  52.   34.8  28.6  28.6  24.8  24.8  24.8
  24.8  24.8  24.8  33.   33.   33.   33.   33.   33.   33.   52.6  58.
  50.   50.   84.8 122.6 122.6 122.6 160.  160.  160.8 182.  182.  119.6
 119.6 119.6  56.4  43.2  43.2  40.8  47.   47.   47.   47.   47.2  47.2
  47.2  44.8  48.2  31.4  48.2  48.2  58.6  61.6  61.6  61.6  52.   34.8
  28.6  28.6  24.8  24.8  24.8  24.8  24.8  24.8  24.8  33.   33.   33.
  33.   33.   33.   52.6  58.   50.   50.  126.8 122.6 122.6 155.8 160.
 160.  160.8 182.  182.  119.6 119.6 119.6  56.4  43.2  43.2  40.8  47.
  47.   47.   47.   47.2  47.2  47.2  44.8  48.2  48.2  48.2  58.6  61.6
  61.6  61.6  52.   34.8  28.6  28.6  24.8  24.8  24.8  24.8  24.8  24.8
  33.   33.   33.   33.   33.   33.   33.   52.6  58.   50.   50.  126.8
 122.6 122.6 155.8 160.  160.  160.8 182.  182.  119.6 119.6 119.6  56.4
  43.2  43.2  40.8  47.   47.   47.   47.   47.2  47.2  47.2  43.   48.2
  48.2  48.2  48.2  61.6  61.6  61.6  52.   34.8  28.6  28.6  24.8  24.8
  24.8  24.8  24.8  24.8  33.   33.   33.   33.   33.   33.   33.   52.6
  50.   50.   50.  126.8 122.6 122.6 122.6 160.  160.  160.8 182.  182.
 122.2 119.6 119.6  56.4  43.2  43.2  40.8  47.   47.   47.   47.   47.2
  47.2  47.2  44.8  48.2  48.2  48.2  61.6  61.6  61.6  47.6  34.8  28.6
  28.6  24.8  24.8  24.8  24.8  24.8  24.8  24.8]